world_frame_idx	world_timestamp	eye_timestamp	x_norm	y_norm	x_scaled	y_scaled	on_srf
0	1416256693.1356289	1416256693.109477	0.51146574532027733	0.9453080030235067	0.51146574532027733	0.51146574532027733	True
0	1416256693.1356289	1416256693.1387479	0.50894714540614161	0.94398373596411345	0.50894714540614161	0.50894714540614161	True
1	1416256693.1639831	1416256693.170773	0.50654798678600366	0.94491305058143893	0.50654798678600366	0.50654798678600366	True
2	1416256693.1952989	1416256693.203841	0.50694585099815481	0.94519419927460602	0.50694585099815481	0.50694585099815481	True
4	1416256693.264138	1416256693.278955	0.77359162670528459	0.96412657668788981	0.77359162670528459	0.77359162670528459	True
5	1416256693.2950921	1416256693.3085151	0.76528020521955498	0.96273512547709605	0.76528020521955498	0.76528020521955498	True
6	1416256693.323801	1416256693.342382	0.76286100745809338	0.96788394003459943	0.76286100745809338	0.76286100745809338	True
7	1416256693.363039	1416256693.3735549	0.76253639798241191	0.96721255284864216	0.76253639798241191	0.76253639798241191	True
9	1416256693.417423	1416256693.4109681	0.76168373718975957	0.96909049267969471	0.76168373718975957	0.76168373718975957	True
9	1416256693.417423	1416256693.43961	0.75026126646461766	0.97663306045895615	0.75026126646461766	0.75026126646461766	True
10	1416256693.4654441	1416256693.4744201	0.73446139774560149	0.9886800353226689	0.73446139774560149	0.73446139774560149	True
11	1416256693.5008659	1416256693.5074811	0.73373470834172927	0.98841391010780677	0.73373470834172927	0.73373470834172927	True
12	1416256693.5227439	1416256693.540066	0.7350487520716793	0.98741592029887604	0.7350487520716793	0.7350487520716793	True
13	1416256693.561204	1416256693.571058	0.73431830989515068	0.98683220945912575	0.73431830989515068	0.73431830989515068	True
14	1416256693.5930631	1416256693.6027141	0.73409427684600637	0.98517739534018456	0.73409427684600637	0.73409427684600637	True
15	1416256693.632946	1416256693.6356881	0.73463663483321484	0.98439620919824911	0.73463663483321484	0.73463663483321484	True
16	1416256693.656214	1416256693.6685791	0.73409914297159939	0.98753576689429579	0.73409914297159939	0.73409914297159939	True
18	1416256693.7301641	1416256693.728966	0.73471654571166145	0.9896990907826595	0.73471654571166145	0.73471654571166145	True
20	1416256693.7853811	1416256693.7735801	0.73476501701794261	0.9901075446707398	0.73476501701794261	0.73476501701794261	True
22	1416256693.8524301	1416256693.8390541	0.45103026948460334	0.8943203122464648	0.45103026948460334	0.45103026948460334	True
23	1416256693.884124	1416256693.871135	0.4524194120906237	0.88905712405171544	0.4524194120906237	0.4524194120906237	True
24	1416256693.9220979	1416256693.903435	0.45410928385475663	0.89109931036300893	0.45410928385475663	0.45410928385475663	True
24	1416256693.9220979	1416256693.935415	0.45393145257972772	0.8943507455013826	0.45393145257972772	0.45393145257972772	True
25	1416256693.9581909	1416256693.9724741	0.45349460278759213	0.8936225493480825	0.45349460278759213	0.45349460278759213	True
26	1416256693.9898961	1416256694.003252	0.45233173174037672	0.89590260718978842	0.45233173174037672	0.45233173174037672	True
27	1416256694.0207829	1416256694.034519	0.42987441153934797	0.91596842754110352	0.42987441153934797	0.42987441153934797	True
28	1416256694.0539491	1416256694.0685201	0.4244756222504667	0.92607383386027531	0.4244756222504667	0.4244756222504667	True
29	1416256694.084955	1416256694.1024539	0.42442148043355693	0.92401067321149222	0.42442148043355693	0.42442148043355693	True
30	1416256694.123106	1416256694.134496	0.42637047706064674	0.92169950582033366	0.42637047706064674	0.42637047706064674	True
32	1416256694.179827	1416256694.1675789	0.42677594451146073	0.9224700292050888	0.42677594451146073	0.42677594451146073	True
32	1416256694.179827	1416256694.1997399	0.42657188499613158	0.9231718437428299	0.42657188499613158	0.42657188499613158	True
33	1416256694.222311	1416256694.231636	0.40445015700557274	0.93987798388218902	0.40445015700557274	0.40445015700557274	True
34	1416256694.2514081	1416256694.2622361	0.37889967541700037	0.96341509699275441	0.37889967541700037	0.37889967541700037	True
35	1416256694.2845659	1416256694.2958851	0.37816776606664032	0.96305813890724845	0.37816776606664032	0.37816776606664032	True
36	1416256694.3189549	1416256694.3274119	0.37866627301992795	0.96062803889830062	0.37866627301992795	0.37866627301992795	True
37	1416256694.343379	1416256694.364862	0.38007148573145144	0.95762656140511648	0.38007148573145144	0.38007148573145144	True
38	1416256694.387265	1416256694.391876	0.38025470903551678	0.95798939640547609	0.38025470903551678	0.38025470903551678	True
39	1416256694.410877	1416256694.423378	0.38064095140559845	0.95731778269872425	0.38064095140559845	0.38064095140559845	True
40	1416256694.458333	1416256694.4555881	0.38119950363298755	0.95760075933626854	0.38119950363298755	0.38119950363298755	True
41	1416256694.4902029	1416256694.494333	0.38064282447956216	0.95793370316071158	0.38064282447956216	0.38064282447956216	True
42	1416256694.512033	1416256694.5213809	0.43944056055640784	0.90648887858166005	0.43944056055640784	0.43944056055640784	True
43	1416256694.557605	1416256694.5559111	0.44395901959312162	0.89869967430658149	0.44395901959312162	0.44395901959312162	True
44	1416256694.5894001	1416256694.5999091	0.44312798393402841	0.89763464594014986	0.44312798393402841	0.44312798393402841	True
45	1416256694.615299	1416256694.6325729	0.44293395826318493	0.89802355055006089	0.44293395826318493	0.44293395826318493	True
46	1416256694.653496	1416256694.664854	0.44295543342815696	0.89813462054061088	0.44295543342815696	0.44295543342815696	True
47	1416256694.689904	1416256694.6971109	0.44423814023275277	0.89394386779235646	0.44423814023275277	0.44423814023275277	True
48	1416256694.712652	1416256694.7301199	0.47804413657211586	0.74472657234873929	0.47804413657211586	0.47804413657211586	True
50	1416256694.7806029	1416256694.7654209	0.48076678444113036	0.73920045138069645	0.48076678444113036	0.48076678444113036	True
51	1416256694.804714	1416256694.794796	0.47912800941300254	0.74222936120415228	0.47912800941300254	0.47912800941300254	True
52	1416256694.8479919	1416256694.8271389	0.47911374388947386	0.74510177487090801	0.47911374388947386	0.47911374388947386	True
52	1416256694.8479919	1416256694.859674	0.47982926717325908	0.74581546319268222	0.47982926717325908	0.47982926717325908	True
54	1416256694.901298	1416256694.8922949	0.48021614155187059	0.74529190209852847	0.48021614155187059	0.48021614155187059	True
55	1416256694.9451151	1416256694.9247029	0.48052072088727071	0.74558563136395917	0.48052072088727071	0.48052072088727071	True
55	1416256694.9451151	1416256694.956933	0.48141647683145572	0.71959954731939346	0.48141647683145572	0.48141647683145572	True
57	1416256695.003531	1416256694.992631	0.48798084272672948	0.61304791951880477	0.48798084272672948	0.48798084272672948	True
57	1416256695.003531	1416256695.022748	0.48833825576661394	0.61517208925737299	0.48833825576661394	0.48833825576661394	True
58	1416256695.046083	1416256695.056741	0.48744387338221434	0.61931785247697413	0.48744387338221434	0.48744387338221434	True
59	1416256695.076992	1416256695.0890241	0.48773182584422392	0.62208497212466241	0.48773182584422392	0.48773182584422392	True
60	1416256695.114784	1416256695.122097	0.48752234860212657	0.62465214752303588	0.48752234860212657	0.48752234860212657	True
61	1416256695.148185	1416256695.1550829	0.48794864217781087	0.62503535414229139	0.48794864217781087	0.48794864217781087	True
62	1416256695.1816671	1416256695.182862	0.48873052523491312	0.62553943876671669	0.48873052523491312	0.48873052523491312	True
63	1416256695.205147	1416256695.2160239	0.48894252861695109	0.62525257534725742	0.48894252861695109	0.48894252861695109	True
64	1416256695.2438419	1416256695.248596	0.48956100762757787	0.6260801895845729	0.48956100762757787	0.48956100762757787	True
65	1416256695.28175	1416256695.283356	0.48872854214223704	0.62636908868582253	0.48872854214223704	0.48872854214223704	True
67	1416256695.3390341	1416256695.3277631	0.48873465458143944	0.62796231071610742	0.48873465458143944	0.48873465458143944	True
67	1416256695.3390341	1416256695.3551321	0.4886274275526033	0.62849409587696792	0.4886274275526033	0.4886274275526033	True
68	1416256695.3737781	1416256695.3882329	0.48906854498771785	0.63111183109966706	0.48906854498771785	0.48906854498771785	True
69	1416256695.4097641	1416256695.4208701	0.48262513452125799	0.62678936554620224	0.48262513452125799	0.48262513452125799	True
70	1416256695.43977	1416256695.454397	0.46004261996139462	0.6322164436250709	0.46004261996139462	0.46004261996139462	True
85	1416256695.9373569	1416256695.9474609	0.66477554752645118	0.66329881643274846	0.66477554752645118	0.66477554752645118	True
87	1416256695.992795	1416256696.009151	0.6543267413822681	0.65628678345943858	0.6543267413822681	0.6543267413822681	True
88	1416256696.0365839	1416256696.043237	0.65330401686836392	0.65600042372157341	0.65330401686836392	0.65330401686836392	True
90	1416256696.0984571	1416256696.105022	0.71213149402035369	0.66749002620729525	0.71213149402035369	0.71213149402035369	True
91	1416256696.132704	1416256696.1496921	0.70990078344783614	0.66737440069566023	0.70990078344783614	0.70990078344783614	True
92	1416256696.169205	1416256696.1818099	0.70743196266177499	0.66683660010152224	0.70743196266177499	0.70743196266177499	True
94	1416256696.2310989	1416256696.214776	0.70762341920574612	0.66676495688660875	0.70762341920574612	0.70762341920574612	True
94	1416256696.2310989	1416256696.248271	0.70703762206342058	0.66499937934075348	0.70703762206342058	0.70703762206342058	True
95	1416256696.2676539	1416256696.2811029	0.70604625086363337	0.66660307853070655	0.70604625086363337	0.70604625086363337	True
97	1416256696.3241251	1416256696.3144081	0.70669435313781481	0.66705717938660691	0.70669435313781481	0.70669435313781481	True
98	1416256696.3668101	1416256696.346313	0.7062909281131432	0.66822697936074404	0.7062909281131432	0.7062909281131432	True
98	1416256696.3668101	1416256696.3785529	0.70618079482428997	0.66801312388554901	0.70618079482428997	0.70618079482428997	True
100	1416256696.4241171	1416256696.411361	0.70643955570431449	0.66671441117376451	0.70643955570431449	0.70643955570431449	True
101	1416256696.461277	1416256696.4437621	0.70576857112066571	0.66663387994026557	0.70576857112066571	0.70576857112066571	True
102	1416256696.496598	1416256696.505265	0.60174769788349924	0.6578425357977985	0.60174769788349924	0.60174769788349924	True
103	1416256696.525944	1416256696.535826	0.60258075629905206	0.66013651316022648	0.60258075629905206	0.60258075629905206	True
104	1416256696.557138	1416256696.5789621	0.60443730305064225	0.66021491528974752	0.60443730305064225	0.60443730305064225	True
105	1416256696.6009769	1416256696.600589	0.60412574749025849	0.66107888102187651	0.60412574749025849	0.60412574749025849	True
106	1416256696.6291001	1416256696.6430831	0.60556280851318367	0.66180883579783423	0.60556280851318367	0.60556280851318367	True
107	1416256696.6625631	1416256696.675303	0.60647890419965511	0.66344671182023951	0.60647890419965511	0.60647890419965511	True
108	1416256696.6938519	1416256696.7076139	0.60705836104975763	0.66280867857443349	0.60705836104975763	0.60705836104975763	True
109	1416256696.723609	1416256696.7403121	0.60552097582130804	0.66280724655957357	0.60552097582130804	0.60552097582130804	True
110	1416256696.759207	1416256696.7718339	0.60812175296291149	0.6621221672698987	0.60812175296291149	0.60812175296291149	True
111	1416256696.7882881	1416256696.8041379	0.63821513860932533	0.66473263552664363	0.63821513860932533	0.63821513860932533	True
112	1416256696.8316071	1416256696.8385961	0.63770138734850057	0.66318518992599862	0.63770138734850057	0.63770138734850057	True
113	1416256696.865449	1416256696.8728459	0.63623639821045563	0.66516595479762841	0.63623639821045563	0.63623639821045563	True
114	1416256696.8878441	1416256696.9062719	0.63573024066388539	0.66543951659493572	0.63573024066388539	0.63573024066388539	True
116	1416256696.9629829	1416256696.9717841	0.634969815606652	0.66596649577815104	0.634969815606652	0.634969815606652	True
117	1416256697.0190649	1416256697.036906	0.81726595127266122	0.71120869310294066	0.81726595127266122	0.81726595127266122	True
118	1416256697.062526	1416256697.0693741	0.81046254736287948	0.70836007551839053	0.81046254736287948	0.81046254736287948	True
119	1416256697.094044	1416256697.0987461	0.81058330560290126	0.70955791788364353	0.81058330560290126	0.81058330560290126	True
120	1416256697.117214	1416256697.132576	0.80937131638964455	0.71195403858082618	0.80937131638964455	0.80937131638964455	True
121	1416256697.1619091	1416256697.1614449	0.80853478909971654	0.71096518248383511	0.80853478909971654	0.80853478909971654	True
122	1416256697.1945381	1416256697.1963999	0.8083265760439432	0.71010165014701887	0.8083265760439432	0.8083265760439432	True
123	1416256697.220603	1416256697.2312391	0.80843053691122235	0.71042194494606981	0.80843053691122235	0.80843053691122235	True
124	1416256697.2593069	1416256697.272881	0.80868270565138156	0.71134303169561741	0.80868270565138156	0.80868270565138156	True
126	1416256697.3137181	1416256697.3079031	0.82014031281279365	0.70132312426913901	0.82014031281279365	0.82014031281279365	True
127	1416256697.357811	1416256697.338587	0.82194163660009689	0.69577523686361376	0.82194163660009689	0.82194163660009689	True
127	1416256697.357811	1416256697.36903	0.8197808865801568	0.69729868091537262	0.8197808865801568	0.8197808865801568	True
129	1416256697.415019	1416256697.403358	0.82057814143017083	0.69850399074713998	0.82057814143017083	0.82057814143017083	True
130	1416256697.45315	1416256697.467551	0.79496702960671706	0.69717835302322273	0.79496702960671706	0.79496702960671706	True
131	1416256697.4844379	1416256697.4979689	0.79469905100442428	0.69491404583493144	0.79469905100442428	0.79469905100442428	True
133	1416256697.5451789	1416256697.531776	0.79480462916361672	0.69703448146903957	0.79480462916361672	0.79480462916361672	True
135	1416256697.6178761	1416256697.62655	0.83790384740551327	0.37083595033661071	0.83790384740551327	0.83790384740551327	True
136	1416256697.6451499	1416256697.657918	0.83648537969445058	0.37718807143806266	0.83648537969445058	0.83648537969445058	True
137	1416256697.6884651	1416256697.6901841	0.83749117850931565	0.38229847612973278	0.83749117850931565	0.83749117850931565	True
138	1416256697.7115531	1416256697.72788	0.83280130271475539	0.37836307575815448	0.83280130271475539	0.83280130271475539	True
140	1416256697.7824681	1416256697.798074	0.83688502105489881	0.38494439039357414	0.83688502105489881	0.83688502105489881	True
143	1416256697.880698	1416256697.8664701	0.73327070625343316	0.36757277665751642	0.73327070625343316	0.73327070625343316	True
144	1416256697.90887	1416256697.8948741	0.72455272196974507	0.36343398614272926	0.72455272196974507	0.72455272196974507	True
145	1416256697.9428279	1416256697.9311831	0.72357870485545162	0.36228484475882539	0.72357870485545162	0.72357870485545162	True
146	1416256697.9844811	1416256697.9646261	0.71883837359711822	0.36161595595304452	0.71883837359711822	0.71883837359711822	True
146	1416256697.9844811	1416256697.9961159	0.60939240537528394	0.31833776187620544	0.60939240537528394	0.60939240537528394	True
148	1416256698.0409639	1416256698.0315549	0.60726367979429896	0.31689247460009984	0.60726367979429896	0.60726367979429896	True
149	1416256698.0778141	1416256698.062953	0.60870329679468971	0.31889667803233979	0.60870329679468971	0.60870329679468971	True
150	1416256698.1112111	1416256698.094835	0.60908847369538965	0.31715584688671333	0.60908847369538965	0.60908847369538965	True
150	1416256698.1112111	1416256698.128315	0.60982975870782674	0.3160366268921645	0.60982975870782674	0.60982975870782674	True
151	1416256698.1506219	1416256698.159374	0.61002490658204722	0.31636722394993416	0.61002490658204722	0.61002490658204722	True
153	1416256698.2047689	1416256698.1950121	0.61073104329487238	0.31779225804363165	0.61073104329487238	0.61073104329487238	True
154	1416256698.2481289	1416256698.22698	0.61076978297999818	0.31830085958906618	0.61076978297999818	0.61076978297999818	True
154	1416256698.2481289	1416256698.261549	0.61191443590510219	0.32050302902673222	0.61191443590510219	0.61191443590510219	True
155	1416256698.2797301	1416256698.2915721	0.6089235581901149	0.31982231025942148	0.6089235581901149	0.6089235581901149	True
157	1416256698.351644	1416256698.355432	0.44154766840653192	0.27912297870234637	0.44154766840653192	0.44154766840653192	True
158	1416256698.3860109	1416256698.389354	0.44439176239670392	0.27971242458691958	0.44439176239670392	0.44439176239670392	True
160	1416256698.432585	1416256698.4237471	0.44567829066870862	0.27770644661802008	0.44567829066870862	0.44567829066870862	True
161	1416256698.4741311	1416256698.4558549	0.44604717781342029	0.27770690380183649	0.44604717781342029	0.44604717781342029	True
161	1416256698.4741311	1416256698.4869299	0.44592249153702185	0.27605315659430818	0.44592249153702185	0.44592249153702185	True
163	1416256698.5463951	1416256698.5527589	0.51307190992069263	0.52672718054835521	0.51307190992069263	0.51307190992069263	True
164	1416256698.579236	1416256698.5820031	0.51038197427124998	0.51581545990006261	0.51038197427124998	0.51038197427124998	True
165	1416256698.603035	1416256698.616828	0.51006690684516176	0.51350095010862251	0.51006690684516176	0.51006690684516176	True
166	1416256698.646168	1416256698.649395	0.5087956862187959	0.51299759205049678	0.5087956862187959	0.5087956862187959	True
168	1416256698.7030001	1416256698.6939499	0.50777041193536898	0.51363477513089717	0.50777041193536898	0.50777041193536898	True
169	1416256698.7364299	1416256698.7258501	0.5046760501943518	0.51343432894150853	0.5046760501943518	0.5046760501943518	True
170	1416256698.7722919	1416256698.7548659	0.45642849280398928	0.49964505851451657	0.45642849280398928	0.45642849280398928	True
170	1416256698.7722919	1416256698.786258	0.45952717277003569	0.51152879158348064	0.45952717277003569	0.45952717277003569	True
172	1416256698.833535	1416256698.8194799	0.46179321393153883	0.50928501717814112	0.46179321393153883	0.46179321393153883	True
172	1416256698.833535	1416256698.8525579	0.4614299436863164	0.5092700758883173	0.4614299436863164	0.4614299436863164	True
173	1416256698.8719039	1416256698.8833151	0.46147462922028876	0.50769905139392479	0.46147462922028876	0.46147462922028876	True
174	1416256698.9043479	1416256698.9166219	0.45935240283342177	0.50504281502084658	0.45935240283342177	0.45935240283342177	True
175	1416256698.9294801	1416256698.947932	0.45941572865635849	0.50742834410458826	0.45941572865635849	0.45941572865635849	True
176	1416256698.9690869	1416256698.977704	0.46010694812876762	0.50561024236169461	0.46010694812876762	0.46010694812876762	True
178	1416256699.0291059	1416256699.0146871	0.46114414148067223	0.50930762590257173	0.46114414148067223	0.46114414148067223	True
178	1416256699.0291059	1416256699.0467739	0.46191543045159572	0.51201291183016018	0.46191543045159572	0.46191543045159572	True
179	1416256699.0711019	1416256699.0776739	0.47092770596471528	0.49911704177409161	0.47092770596471528	0.47092770596471528	True
180	1416256699.101691	1416256699.111414	0.4956172586166217	0.50355746785776845	0.4956172586166217	0.4956172586166217	True
181	1416256699.129415	1416256699.1452701	0.49297587546993155	0.50399493795265449	0.49297587546993155	0.49297587546993155	True
182	1416256699.16626	1416256699.176209	0.49220038704969665	0.50503098503015675	0.49220038704969665	0.49220038704969665	True
183	1416256699.1974039	1416256699.2119789	0.49125134208854626	0.50163970915649314	0.49125134208854626	0.49125134208854626	True
184	1416256699.241133	1416256699.240814	0.4899899112214004	0.50263533364026725	0.4899899112214004	0.4899899112214004	True
185	1416256699.2726519	1416256699.277036	0.49049000980155383	0.50397802257428925	0.49049000980155383	0.49049000980155383	True
187	1416256699.3344719	1416256699.348824	0.61776413571847599	0.50987713130690093	0.61776413571847599	0.61776413571847599	True
188	1416256699.3706119	1416256699.3835731	0.60728173066956082	0.51332128573054914	0.60728173066956082	0.60728173066956082	True
189	1416256699.4056339	1416256699.417706	0.60347100913331586	0.51466106785773313	0.60347100913331586	0.60347100913331586	True
191	1416256699.464442	1416256699.449652	0.60300710405338342	0.51488659829810868	0.60300710405338342	0.60300710405338342	True
191	1416256699.464442	1416256699.4777999	0.60251373893824545	0.51481730643140655	0.60251373893824545	0.60251373893824545	True
192	1416256699.5061569	1416256699.5118649	0.60161768004848959	0.51593990624670294	0.60161768004848959	0.60161768004848959	True
194	1416256699.560755	1416256699.578382	0.5653682134937863	0.52995768990188752	0.5653682134937863	0.5653682134937863	True
195	1416256699.600888	1416256699.611443	0.56911086906920327	0.51444082652124745	0.56911086906920327	0.56911086906920327	True
196	1416256699.6320939	1416256699.640451	0.56944812062000316	0.51429105116601925	0.56944812062000316	0.56944812062000316	True
197	1416256699.6626971	1416256699.678498	0.56947698745088493	0.5154879027881667	0.56947698745088493	0.56947698745088493	True
198	1416256699.7028091	1416256699.711036	0.56904520776624301	0.51521739013399592	0.56904520776624301	0.56904520776624301	True
199	1416256699.7306621	1416256699.7391701	0.56937024864404873	0.51624095141317183	0.56937024864404873	0.56937024864404873	True
200	1416256699.761431	1416256699.7719059	0.56891050363900508	0.51761203428725644	0.56891050363900508	0.56891050363900508	True
201	1416256699.7955501	1416256699.8040221	0.56908734709769138	0.51623862890388483	0.56908734709769138	0.56908734709769138	True
202	1416256699.8229921	1416256699.8373489	0.57010012245241515	0.51721414884297101	0.57010012245241515	0.57010012245241515	True
203	1416256699.8697319	1416256699.8708971	0.57404436196955544	0.51581475358371354	0.57404436196955544	0.57404436196955544	True
204	1416256699.8979189	1416256699.9059391	0.69932210000187067	0.52997466256267578	0.69932210000187067	0.69932210000187067	True
205	1416256699.925137	1416256699.935262	0.70079798236251889	0.54082932032103981	0.70079798236251889	0.70079798236251889	True
206	1416256699.961103	1416256699.96996	0.69878970617462244	0.53941537099620585	0.69878970617462244	0.69878970617462244	True
207	1416256699.989845	1416256700.0028541	0.69767055395513711	0.53813652131973888	0.69767055395513711	0.69767055395513711	True
209	1416256700.0593491	1416256700.0464771	0.69740110687939805	0.54024548585787102	0.69740110687939805	0.69740110687939805	True
210	1416256700.0843201	1416256700.07424	0.69677835017082723	0.53834073911964075	0.69677835017082723	0.69677835017082723	True
211	1416256700.1288581	1416256700.106602	0.69691684775527307	0.53831992544344187	0.69691684775527307	0.69691684775527307	True
211	1416256700.1288581	1416256700.1397591	0.6966803002139389	0.53738282352270006	0.6966803002139389	0.6966803002139389	True
212	1416256700.1631069	1416256700.1726019	0.69648719504707046	0.53691344785663164	0.69648719504707046	0.69648719504707046	True
214	1416256700.2295821	1416256700.238349	0.70142679204087177	0.53924119222805478	0.70142679204087177	0.70142679204087177	True
215	1416256700.2612979	1416256700.26806	0.71933569211024062	0.54518940844948749	0.71933569211024062	0.71933569211024062	True
216	1416256700.2832351	1416256700.302227	0.71736898266731108	0.54537505676347975	0.71736898266731108	0.71736898266731108	True
217	1416256700.32709	1416256700.3354509	0.7164544183757896	0.54498737862703672	0.7164544183757896	0.7164544183757896	True
218	1416256700.3583691	1416256700.367806	0.71690042150854649	0.54603289960677603	0.71690042150854649	0.71690042150854649	True
219	1416256700.3819909	1416256700.4006841	0.71750114555897038	0.54427554184623905	0.71750114555897038	0.71750114555897038	True
220	1416256700.4251621	1416256700.4310939	0.71659302907778022	0.54526717204215724	0.71659302907778022	0.71659302907778022	True
221	1416256700.4563861	1416256700.462594	0.71577829265217541	0.54540753418886545	0.71577829265217541	0.71577829265217541	True
222	1416256700.4953971	1416256700.501591	0.72480912086380389	0.54268666419928546	0.72480912086380389	0.72480912086380389	True
223	1416256700.5245979	1416256700.529896	0.75043618235961584	0.55042917211504139	0.75043618235961584	0.75043618235961584	True
224	1416256700.556761	1416256700.56427	0.75004451071653178	0.55412231399565359	0.75004451071653178	0.75004451071653178	True
225	1416256700.5902841	1416256700.5968511	0.74961723614354547	0.55454470165908332	0.74961723614354547	0.74961723614354547	True
226	1416256700.6236169	1416256700.6290159	0.74894651962761671	0.55518698157371216	0.74894651962761671	0.74894651962761671	True
227	1416256700.654887	1416256700.661921	0.74826811428597151	0.55410690774193871	0.74826811428597151	0.74826811428597151	True
228	1416256700.693748	1416256700.694252	0.74855875554284201	0.55581187362858153	0.74855875554284201	0.74855875554284201	True
229	1416256700.725827	1416256700.7272141	0.74884411516996563	0.55430388684965504	0.74884411516996563	0.74884411516996563	True
230	1416256700.759769	1416256700.7598779	0.74780355551911615	0.55400682251212019	0.74780355551911615	0.74780355551911615	True
231	1416256700.7831221	1416256700.793293	0.74832619773463438	0.55388768086683382	0.74832619773463438	0.74832619773463438	True
232	1416256700.8223939	1416256700.8263519	0.74831793772061328	0.55351188526829442	0.74831793772061328	0.74831793772061328	True
235	1416256700.9162309	1416256700.9051969	0.81321995456872032	0.59465495588693429	0.81321995456872032	0.81321995456872032	True
236	1416256700.9475379	1416256700.9341559	0.81051410700540349	0.58973556274435157	0.81051410700540349	0.81051410700540349	True
236	1416256700.9475379	1416256700.962563	0.79805811826518758	0.57599000059726269	0.79805811826518758	0.79805811826518758	True
237	1416256700.986237	1416256700.9971001	0.81447111735528011	0.5992799083223258	0.81447111735528011	0.81447111735528011	True
238	1416256701.0193541	1416256701.0317249	0.80320073515126211	0.58304790877499924	0.80320073515126211	0.80320073515126211	True
239	1416256701.0503731	1416256701.0603311	0.80581965842452907	0.58387420012985791	0.80581965842452907	0.80581965842452907	True
240	1416256701.07742	1416256701.0939951	0.81297494252771785	0.60194598832344592	0.81297494252771785	0.81297494252771785	True
241	1416256701.120857	1416256701.1294889	0.80684810929020701	0.58663149230245448	0.80684810929020701	0.80684810929020701	True
243	1416256701.175529	1416256701.1927259	0.79718062802740963	0.56965951262172543	0.79718062802740963	0.79718062802740963	True
244	1416256701.219655	1416256701.2267129	0.79773263266386407	0.57502205516018401	0.79773263266386407	0.79773263266386407	True
245	1416256701.2506239	1416256701.2600939	0.79891023594371036	0.57618372980156696	0.79891023594371036	0.79891023594371036	True
246	1416256701.2784929	1416256701.2890551	0.7974716903185759	0.57805580868401774	0.7974716903185759	0.7974716903185759	True
247	1416256701.318099	1416256701.321923	0.79650397184518651	0.57201521295938984	0.79650397184518651	0.79650397184518651	True
249	1416256701.372438	1416256701.3900361	0.80063707946074802	0.57700894820557369	0.80063707946074802	0.80063707946074802	True
250	1416256701.420028	1416256701.4233451	0.7891352326226746	0.55540556815833175	0.7891352326226746	0.7891352326226746	True
251	1416256701.4507549	1416256701.456799	0.79991178991952605	0.57676353592031704	0.79991178991952605	0.79991178991952605	True
252	1416256701.475467	1416256701.485992	0.79580815212365108	0.56622815433440088	0.79580815212365108	0.79580815212365108	True
253	1416256701.515496	1416256701.5304899	0.79457982701155438	0.56310970334674559	0.79457982701155438	0.79457982701155438	True
256	1416256701.6474741	1416256701.658921	0.82708278432830962	0.58225230027338781	0.82708278432830962	0.82708278432830962	True
258	1416256701.7023661	1416256701.6936109	0.83703419398630585	0.60713329653335835	0.83703419398630585	0.83703419398630585	True
258	1416256701.7023661	1416256701.7222221	0.82376764417603154	0.57715141509678758	0.82376764417603154	0.82376764417603154	True
262	1416256701.845938	1416256701.8549809	0.83144505502074584	0.97691083608014595	0.83144505502074584	0.83144505502074584	True
263	1416256701.8783901	1416256701.8841701	0.82776065274858501	0.96068619742521177	0.82776065274858501	0.82776065274858501	True
264	1416256701.900285	1416256701.9142439	0.8266607909914877	0.95732178136258494	0.8266607909914877	0.8266607909914877	True
265	1416256701.9449389	1416256701.9520431	0.8264867343952359	0.95468883613667299	0.8264867343952359	0.8264867343952359	True
267	1416256702.01033	1416256702.023535	0.75741367758213574	0.9344323000169672	0.75741367758213574	0.75741367758213574	True
268	1416256702.0432401	1416256702.0587561	0.75893935708599636	0.93658465416316949	0.75893935708599636	0.75893935708599636	True
270	1416256702.1033261	1416256702.0922129	0.75915355240528271	0.9366609972406803	0.75915355240528271	0.75915355240528271	True
270	1416256702.1033261	1416256702.1191051	0.75759622240504743	0.9361104959783455	0.75759622240504743	0.75759622240504743	True
272	1416256702.169188	1416256702.1548159	0.75364389082129057	0.97072790078052817	0.75364389082129057	0.75364389082129057	True
272	1416256702.169188	1416256702.1862149	0.75242803372291034	0.99567994116725211	0.75242803372291034	0.75242803372291034	True
273	1416256702.2064011	1416256702.2218709	0.75389118040680303	0.99408518699091009	0.75389118040680303	0.75389118040680303	True
275	1416256702.270498	1416256702.255641	0.75280897503973077	0.99312055704116819	0.75280897503973077	0.75280897503973077	True
275	1416256702.270498	1416256702.2839849	0.7530661315599706	0.99379288798254906	0.7530661315599706	0.7530661315599706	True
276	1416256702.309077	1416256702.3163099	0.75299390181382952	0.99322298102518913	0.75299390181382952	0.75299390181382952	True
277	1416256702.3364511	1416256702.34916	0.75329644313899169	0.99327099254632589	0.75329644313899169	0.75329644313899169	True
278	1416256702.3674669	1416256702.3820939	0.7530826729913016	0.99241946257773994	0.7530826729913016	0.7530826729913016	True
279	1416256702.4006481	1416256702.409543	0.75268507380585692	0.99408557812459997	0.75268507380585692	0.75268507380585692	True
280	1416256702.433763	1416256702.4426341	0.75182538299231882	0.99567324757528675	0.75182538299231882	0.75182538299231882	True
281	1416256702.466675	1416256702.4756701	0.75168397636305273	0.99416035696153182	0.75168397636305273	0.75168397636305273	True
283	1416256702.529763	1416256702.5445509	0.74514273543786025	1.0174011205150353	0.74514273543786025	0.74514273543786025	False
284	1416256702.572859	1416256702.5782981	0.74687085806530684	1.0163495278803216	0.74687085806530684	0.74687085806530684	False
287	1416256702.672024	1416256702.651716	0.74568008393475238	1.0169558589196219	0.74568008393475238	0.74568008393475238	False
287	1416256702.672024	1416256702.680388	0.74628633484190987	1.0170493616599621	0.74628633484190987	0.74628633484190987	False
288	1416256702.7012661	1416256702.7134299	0.74150588909355586	0.91064406710235724	0.74150588909355586	0.74150588909355586	True
289	1416256702.7329111	1416256702.7489841	0.74426050762062779	0.8864473923508317	0.74426050762062779	0.74426050762062779	True
291	1416256702.7921109	1416256702.782357	0.74363326384666129	0.89105813165863157	0.74363326384666129	0.74363326384666129	True
292	1416256702.8300271	1416256702.844564	0.74382094924630193	0.89312023166343091	0.74382094924630193	0.74382094924630193	True
293	1416256702.8609791	1416256702.878181	0.74287612372375089	0.89242830506078297	0.74287612372375089	0.74287612372375089	True
294	1416256702.904479	1416256702.9117939	0.74218939032524467	0.89251609799177289	0.74218939032524467	0.74218939032524467	True
296	1416256702.9589989	1416256702.9438021	0.74166367896733154	0.89226699544117127	0.74166367896733154	0.74166367896733154	True
297	1416256703.002569	1416256703.0049019	0.63609549278685484	0.76019375130676525	0.63609549278685484	0.63609549278685484	True
298	1416256703.0303719	1416256703.038023	0.63666279792848435	0.76387189004077849	0.63666279792848435	0.63666279792848435	True
299	1416256703.0612221	1416256703.0694001	0.6370579712979213	0.76641092872459526	0.6370579712979213	0.6370579712979213	True
301	1416256703.134243	1416256703.1393311	0.58982782848232385	0.76305106252612487	0.58982782848232385	0.58982782848232385	True
302	1416256703.168252	1416256703.1784339	0.59154943334031562	0.76224900525154038	0.59154943334031562	0.59154943334031562	True
303	1416256703.194808	1416256703.2014999	0.59255505957592081	0.76298609280078	0.59255505957592081	0.59255505957592081	True
304	1416256703.2271891	1416256703.2337389	0.59109693583905953	0.76335871525765553	0.59109693583905953	0.59109693583905953	True
305	1416256703.261857	1416256703.2684529	0.59053597165310179	0.765075659453891	0.59053597165310179	0.59053597165310179	True
307	1416256703.326086	1416256703.3108201	0.59177636343049689	0.76537671373072158	0.59177636343049689	0.59177636343049689	True
308	1416256703.3580739	1416256703.343096	0.59221133200957743	0.76584139255472883	0.59221133200957743	0.59221133200957743	True
309	1416256703.392792	1416256703.375998	0.59204005024390716	0.76693116498827096	0.59204005024390716	0.59204005024390716	True
310	1416256703.421314	1416256703.410676	0.59200130178597188	0.76756572367184461	0.59200130178597188	0.59200130178597188	True
311	1416256703.4578691	1416256703.4711831	0.59219389821950486	0.76716876038406512	0.59219389821950486	0.59219389821950486	True
313	1416256703.523458	1416256703.53812	0.65061708910886362	0.78028268981442173	0.65061708910886362	0.65061708910886362	True
314	1416256703.555588	1416256703.5729921	0.64760571129319111	0.77978288045102151	0.64760571129319111	0.64760571129319111	True
315	1416256703.595258	1416256703.606554	0.64626096014503853	0.77906098715365613	0.64626096014503853	0.64626096014503853	True
316	1416256703.624011	1416256703.63361	0.64532569264354889	0.78080612285337025	0.64532569264354889	0.64532569264354889	True
317	1416256703.6550331	1416256703.6662631	0.64611429263484843	0.78026497779549975	0.64611429263484843	0.64611429263484843	True
318	1416256703.694072	1416256703.6985559	0.64637972261128618	0.78069467324018571	0.64637972261128618	0.64637972261128618	True
320	1416256703.7590301	1416256703.7664831	0.71750340688790859	0.80615154724610416	0.71750340688790859	0.71750340688790859	True
321	1416256703.7934639	1416256703.8007751	0.71449309155456164	0.80738887788835234	0.71449309155456164	0.71449309155456164	True
322	1416256703.8211341	1416256703.833497	0.71251559107539542	0.806587817460515	0.71251559107539542	0.71251559107539542	True
323	1416256703.861805	1416256703.86099	0.71210247590796216	0.8073774343447897	0.71210247590796216	0.71210247590796216	True
324	1416256703.889823	1416256703.8942759	0.70930526245566172	0.80985517085928516	0.70930526245566172	0.70930526245566172	True
326	1416256703.9576859	1416256703.961242	0.47638712970866209	0.8723582095848752	0.47638712970866209	0.47638712970866209	True
